<svg width="24" height="24" viewBox="0 0 24 24" fill="none" xmlns="http://www.w3.org/2000/svg">
<rect width="24" height="24" fill="white" fill-opacity="0.01" style="mix-blend-mode:multiply"/>
<path d="M22.5 9.75H21V11.25H22.5V9.75Z" fill="currentColor"/>
<path d="M18.8941 2.53707L17.8335 3.59772L18.8941 4.65837L19.9548 3.59772L18.8941 2.53707Z" fill="currentColor"/>
<path d="M12.75 0H11.25V1.5H12.75V0Z" fill="currentColor"/>
<path d="M4.04505 3.61383L5.1057 4.67448L6.16635 3.61383L5.1057 2.55318L4.04505 3.61383Z" fill="currentColor"/>
<path d="M3 9.75H1.5V11.25H3V9.75Z" fill="currentColor"/>
<path d="M14.25 22.5H9.75V24H14.25V22.5Z" fill="currentColor"/>
<path d="M15.75 19.5H8.25V21H15.75V19.5Z" fill="currentColor"/>
<path d="M12 3C7.875 3 4.5 6.375 4.5 10.5C4.5 13.8 6 15.225 7.125 16.2C7.875 16.875 8.25 17.325 8.25 18H9.75C9.75 16.65 8.925 15.825 8.1 15.075C7.05 14.175 6 13.125 6 10.5C6 7.2 8.7 4.5 12 4.5C15.3 4.5 18 7.2 18 10.5C18 13.125 16.95 14.175 15.9 15.075C15.075 15.825 14.25 16.575 14.25 18H15.75C15.75 17.325 16.125 16.875 16.875 16.2C18 15.225 19.5 13.8 19.5 10.5C19.5 6.375 16.125 3 12 3Z" fill="currentColor"/>
</svg>
