<svg width="31" height="30" viewBox="0 0 31 30" fill="none" xmlns="http://www.w3.org/2000/svg">
<mask id="mask0_53_259" style="mask-type:luminance" maskUnits="userSpaceOnUse" x="0" y="0" width="31" height="30">
<path d="M30.0463 0.0517578H0.804932V29.2931H30.0463V0.0517578Z" fill="white"/>
</mask>
<g mask="url(#mask0_53_259)">
<path d="M19.9946 27.4659C18.5488 27.4659 17.1354 27.0372 15.9332 26.2339C14.731 25.4306 13.794 24.2889 13.2407 22.9531C12.6874 21.6173 12.5427 20.1475 12.8247 18.7294C13.1068 17.3113 13.803 16.0087 14.8254 14.9864C15.8478 13.964 17.1504 13.2678 18.5684 12.9857C19.9865 12.7036 21.4564 12.8484 22.7922 13.4017C24.128 13.955 25.2697 14.892 26.0729 16.0942C26.8762 17.2963 27.305 18.7097 27.305 20.1556C27.3028 22.0937 26.5319 23.9519 25.1614 25.3224C23.7909 26.6928 21.9328 27.4637 19.9946 27.4659ZM19.9946 14.6728C18.9102 14.6728 17.8502 14.9944 16.9486 15.5968C16.0469 16.1993 15.3442 17.0556 14.9292 18.0574C14.5142 19.0592 14.4057 20.1616 14.6172 21.2252C14.8288 22.2887 15.3509 23.2657 16.1177 24.0325C16.8845 24.7992 17.8614 25.3214 18.925 25.533C19.9885 25.7445 21.0909 25.6359 22.0928 25.221C23.0946 24.806 23.9509 24.1033 24.5534 23.2016C25.1558 22.3 25.4774 21.24 25.4774 20.1556C25.4759 18.7019 24.8978 17.3082 23.8699 16.2803C22.842 15.2524 21.4483 14.6743 19.9946 14.6728Z" fill="currentColor"/>
<path d="M21.4438 22.897L19.0807 20.534V16.5005H20.9083V19.7774L22.7359 21.6049L21.4438 22.897Z" fill="currentColor"/>
<path d="M26.3911 5.53457C26.3911 5.04986 26.1986 4.58501 25.8558 4.24227C25.5131 3.89953 25.0482 3.70698 24.5635 3.70698H20.9084V1.87939H19.0808V3.70698H11.7704V1.87939H9.94284V3.70698H6.28767C5.80296 3.70698 5.33811 3.89953 4.99537 4.24227C4.65263 4.58501 4.46008 5.04986 4.46008 5.53457V23.8104C4.46008 24.2951 4.65263 24.76 4.99537 25.1027C5.33811 25.4455 5.80296 25.638 6.28767 25.638H9.94284V23.8104H6.28767V5.53457H9.94284V7.36215H11.7704V5.53457H19.0808V7.36215H20.9084V5.53457H24.5635V11.0173H26.3911V5.53457Z" fill="currentColor"/>
</g>
</svg>
