<svg width="31" height="30" viewBox="0 0 31 30" fill="none" xmlns="http://www.w3.org/2000/svg">
<path d="M19.9946 24.2588H10.8566V26.0864H19.9946V24.2588Z" fill="currentColor"/>
<path d="M18.167 27.9141H12.6843V29.7416H18.167V27.9141Z" fill="currentColor"/>
<mask id="mask0_53_285" style="mask-type:luminance" maskUnits="userSpaceOnUse" x="0" y="0" width="31" height="30">
<path d="M30.0463 0.5H0.804932V29.7414H30.0463V0.5Z" fill="white"/>
</mask>
<g mask="url(#mask0_53_285)">
<path d="M15.4256 4.15527C13.0029 4.15793 10.6801 5.12153 8.96701 6.83465C7.25389 8.54777 6.2903 10.8705 6.28764 13.2932C6.22565 14.6207 6.47989 15.9439 7.02942 17.1538C7.57896 18.3638 8.40806 19.4259 9.44845 20.2527C10.3741 21.107 10.8566 21.5914 10.8566 22.4311H12.6842C12.6842 20.7498 11.669 19.8122 10.6866 18.9048C9.83111 18.2517 9.14916 17.3983 8.70078 16.4198C8.2524 15.4413 8.05132 14.3676 8.11522 13.2932C8.11522 11.3544 8.88542 9.49497 10.2564 8.12401C11.6273 6.75305 13.4867 5.98286 15.4256 5.98286C17.3644 5.98286 19.2238 6.75305 20.5948 8.12401C21.9657 9.49497 22.7359 11.3544 22.7359 13.2932C22.7984 14.3685 22.5959 15.4426 22.1463 16.4214C21.6967 17.4001 21.0137 18.2535 20.1572 18.9066C19.1785 19.8131 18.1669 20.7507 18.1669 22.4311H19.9945C19.9945 21.5904 20.4752 21.1061 21.3972 20.2508C22.4378 19.4243 23.2674 18.3626 23.8178 17.1531C24.3682 15.9436 24.6238 14.6207 24.5635 13.2932C24.5608 10.8705 23.5972 8.54777 21.8841 6.83465C20.171 5.12153 17.8483 4.15793 15.4256 4.15527Z" fill="currentColor"/>
<path d="M16.3394 0.5H14.5118V2.32759H16.3394V0.5Z" fill="currentColor"/>
<path d="M4.46009 12.3794H2.63251V14.207H4.46009V12.3794Z" fill="currentColor"/>
<path d="M28.2187 12.3794H26.3911V14.207H28.2187V12.3794Z" fill="currentColor"/>
<path d="M23.8254 3.60126L22.5331 4.89355L23.8254 6.18585L25.1177 4.89355L23.8254 3.60126Z" fill="currentColor"/>
<path d="M7.02619 3.60126L5.73389 4.89355L7.02619 6.18585L8.31848 4.89355L7.02619 3.60126Z" fill="currentColor"/>
</g>
</svg>
