<svg width="30" height="30" viewBox="0 0 30 30" fill="none" xmlns="http://www.w3.org/2000/svg">
<!-- <g opacity="0.468"> -->
<mask id="mask0_41_7" style="mask-type:luminance" maskUnits="userSpaceOnUse" x="0" y="0" width="30" height="30">
<path d="M29.6207 0.534546H0.379272V29.7759H29.6207V0.534546Z" fill="white"/>
</mask>
<g mask="url(#mask0_41_7)">
<path d="M24.1379 4.18965H20.4827V2.36206H18.6551V4.18965H11.3448V2.36206H9.51718V4.18965H5.86201C5.3773 4.18965 4.91245 4.3822 4.56971 4.72493C4.22697 5.06767 4.03442 5.53253 4.03442 6.01723V24.2931C4.03442 24.7778 4.22697 25.2427 4.56971 25.5854C4.91245 25.9281 5.3773 26.1207 5.86201 26.1207H24.1379C24.6226 26.1207 25.0874 25.9281 25.4302 25.5854C25.7729 25.2427 25.9655 24.7778 25.9655 24.2931V6.01723C25.9655 5.53253 25.7729 5.06767 25.4302 4.72493C25.0874 4.3822 24.6226 4.18965 24.1379 4.18965ZM24.1379 24.2931H5.86201V11.5H24.1379V24.2931ZM24.1379 9.6724H5.86201V6.01723H9.51718V7.84482H11.3448V6.01723H18.6551V7.84482H20.4827V6.01723H24.1379V9.6724Z" fill="currentColor"/>
<!-- </g> -->
</g>
</svg>
