<svg width="31" height="30" viewBox="0 0 31 30" fill="none" xmlns="http://www.w3.org/2000/svg">
<mask id="mask0_53_320" style="mask-type:luminance" maskUnits="userSpaceOnUse" x="0" y="0" width="31" height="30">
<path d="M30.1325 0.48291H0.891113V29.7243H30.1325V0.48291Z" fill="white"/>
</mask>
<g mask="url(#mask0_53_320)">
<path d="M7.28767 26.0692V6.87951H10.029V9.62089H20.9946V6.87951H23.7359V14.1899H25.5635V6.87951C25.5635 6.39481 25.371 5.92995 25.0282 5.58721C24.6855 5.24447 24.2207 5.05193 23.7359 5.05193H20.9946V4.13813C20.9946 3.65343 20.802 3.18857 20.4593 2.84583C20.1165 2.5031 19.6517 2.31055 19.167 2.31055H11.8566C11.3719 2.31055 10.9071 2.5031 10.5643 2.84583C10.2216 3.18857 10.029 3.65343 10.029 4.13813V5.05193H7.28767C6.80296 5.05193 6.33811 5.24447 5.99537 5.58721C5.65263 5.92995 5.46008 6.39481 5.46008 6.87951V26.0692C5.46008 26.5539 5.65263 27.0187 5.99537 27.3615C6.33811 27.7042 6.80296 27.8968 7.28767 27.8968H15.5118V26.0692H7.28767ZM11.8566 4.13813H19.167V7.79331H11.8566V4.13813Z" fill="currentColor"/>
<path d="M17.3394 17.8449V20.0499C17.913 19.0887 18.7287 18.2948 19.7052 17.7476C20.6817 17.2004 21.7847 16.919 22.904 16.9316C24.0232 16.9441 25.1196 17.2501 26.0836 17.8191C27.0476 18.3881 27.8454 19.2 28.3973 20.1738C28.9492 21.1477 29.2359 22.2493 29.2287 23.3686C29.2215 24.4879 28.9208 25.5858 28.3565 26.5525C27.7921 27.5192 26.984 28.3209 26.0129 28.8775C25.0417 29.434 23.9415 29.726 22.8221 29.7242V27.8967C23.6461 27.8977 24.4551 27.676 25.1633 27.2548C25.8716 26.8337 26.4527 26.2289 26.8453 25.5044C27.2378 24.7799 27.4272 23.9628 27.3932 23.1395C27.3593 22.3162 27.1033 21.5174 26.6524 20.8277C26.2016 20.138 25.5726 19.5831 24.8321 19.2217C24.0916 18.8602 23.2671 18.7058 22.446 18.7747C21.6249 18.8437 20.8377 19.1333 20.1678 19.6131C19.4979 20.0929 18.9702 20.7449 18.6406 21.5001H20.9945V23.3277H15.5118V17.8449H17.3394Z" fill="currentColor"/>
</g>
</svg>
