<svg width="43" height="42" viewBox="0 0 43 42" fill="none" xmlns="http://www.w3.org/2000/svg">
<mask id="mask0_53_333" style="mask-type:luminance" maskUnits="userSpaceOnUse" x="10" y="9" width="24" height="24">
<path d="M33.3049 9.5H10.4601V32.3448H33.3049V9.5Z" fill="white"/>
</mask>
<g mask="url(#mask0_53_333)">
<path d="M26.2175 15.2431C25.8175 15.2436 25.4202 15.3081 25.0405 15.434C24.4835 14.6804 23.7579 14.0674 22.9217 13.6441C22.0856 13.2208 21.162 12.9989 20.2248 12.996C18.8949 12.9927 17.6023 13.4358 16.5541 14.2543L13.0443 10.749L11.9852 11.8081L16.5167 16.3405L17.0467 15.8105C17.4939 15.363 18.0307 15.0151 18.6218 14.7896C19.213 14.5641 19.8451 14.4661 20.4768 14.5019C21.1084 14.5378 21.7254 14.7068 22.2872 14.9979C22.8489 15.2889 23.3429 15.6954 23.7365 16.1907C23.5765 16.3302 23.4286 16.4831 23.2943 16.6476C23.084 16.9111 22.8169 17.1237 22.5129 17.2696C22.209 17.4154 21.876 17.4908 21.5389 17.4901H18.7271V18.9878H21.5389C22.1006 18.9889 22.6553 18.8632 23.1616 18.62C23.6679 18.3769 24.1128 18.0224 24.463 17.5833C24.7539 17.2197 25.1506 16.9555 25.5983 16.8272C26.0459 16.6988 26.5223 16.7127 26.9617 16.867C27.401 17.0212 27.7817 17.3081 28.0509 17.688C28.3201 18.0679 28.4646 18.5221 28.4645 18.9878H29.9622C29.9622 17.9941 29.5675 17.0412 28.8649 16.3386C28.1623 15.636 27.2093 15.2412 26.2157 15.2412" fill="currentColor"/>
<path d="M18.2876 20.4873L12.2949 14.4946L11.2358 15.5537L16.1703 20.4882H11.2358V21.2375C11.2358 24.0189 12.3407 26.6863 14.3075 28.653C16.2742 30.6198 18.9416 31.7247 21.723 31.7247C24.5043 31.7247 27.1718 30.6198 29.1385 28.653C31.1052 26.6863 32.2101 24.0189 32.2101 21.2375V20.4882L18.2876 20.4873ZM21.7225 30.2256C19.4694 30.2222 17.2996 29.374 15.6415 27.8484C13.9835 26.3228 12.9579 24.2309 12.7674 21.9859H30.6777C30.4872 24.2309 29.4616 26.3228 27.8035 27.8484C26.1455 29.374 23.9756 30.2222 21.7225 30.2256Z" fill="currentColor"/>
</g>
<path d="M42.8084 21.8364L36.4118 28.2329L35.1325 26.9536L40.2497 21.8364L35.1325 16.7191L36.4118 15.4398L42.8084 21.8364Z" fill="currentColor"/>
<path d="M21.4256 -0.00349903L27.8221 6.39305L26.5428 7.67236L21.4256 2.55512L16.3084 7.67236L15.029 6.39305L21.4256 -0.00349903Z" fill="currentColor"/>
<path d="M0.956604 21.8364L7.35316 28.2329L8.63247 26.9536L3.51522 21.8364L8.63247 16.7191L7.35316 15.4398L0.956604 21.8364Z" fill="currentColor"/>
<path d="M21.4256 41.8486L27.8221 35.4521L26.5428 34.1728L21.4256 39.29L16.3084 34.1728L15.029 35.4521L21.4256 41.8486Z" fill="currentColor"/>
</svg>
