<svg width="16" height="16" viewBox="0 0 16 16" fill="none" xmlns="http://www.w3.org/2000/svg">
<rect width="16" height="16" fill="white" fill-opacity="0.01" style="mix-blend-mode:multiply"/>
<path d="M2 3.5H1V2C1.0003 1.73488 1.10576 1.4807 1.29323 1.29323C1.4807 1.10576 1.73488 1.0003 2 1H3.5V2H2V3.5Z" fill="#5D5FEF"/>
<path d="M3.5 11H2C1.73488 10.9997 1.4807 10.8942 1.29323 10.7068C1.10576 10.5193 1.0003 10.2651 1 10V8.5H2V10H3.5V11Z" fill="#5D5FEF"/>
<path d="M2 5H1V7H2V5Z" fill="#5D5FEF"/>
<path d="M11 3.5H10V2H8.5V1H10C10.2651 1.0003 10.5193 1.10576 10.7068 1.29323C10.8942 1.4807 10.9997 1.73488 11 2V3.5Z" fill="#5D5FEF"/>
<path d="M7 1H5V2H7V1Z" fill="#5D5FEF"/>
<path d="M14 15H6C5.73488 14.9997 5.4807 14.8942 5.29323 14.7068C5.10576 14.5193 5.0003 14.2651 5 14V6C5.0003 5.73488 5.10576 5.4807 5.29323 5.29323C5.4807 5.10576 5.73488 5.0003 6 5H14C14.2651 5.0003 14.5193 5.10576 14.7068 5.29323C14.8942 5.4807 14.9997 5.73488 15 6V14C14.9997 14.2651 14.8942 14.5193 14.7068 14.7068C14.5193 14.8942 14.2651 14.9997 14 15ZM6 6V14H14V6H6Z" fill="#5D5FEF"/>
</svg>
