<svg width="21" height="21" viewBox="0 0 21 21" fill="none" xmlns="http://www.w3.org/2000/svg">
<circle cx="10.5" cy="10.5" r="10.5" fill="#616BE9"/>
<rect width="14" height="14" transform="translate(4 3)" fill="white" style="mix-blend-mode:multiply"/>
<path d="M11.4375 9.5625V5.1875H10.5625V9.5625H6.1875V10.4375H10.5625V14.8125H11.4375V10.4375H15.8125V9.5625H11.4375Z" fill="white"/>
</svg>
